{
    "android": {
        "font_name": "default",
        "font_size": 120,
        "isForked": false
    },
    "background_color": "00000000",
    "bg_type": "one",
    "border_color": "424242ff",
    "border_style": "plain",
    "border_type": 0,
    "border_width": 0,
    "desktopweb": {
        "font_name": "Helvetica",
        "font_size": 120,
        "isForked": false
    },
    "fontSizeInPx": false,
    "font_color": "0f0b0fff",
    "font_name": "Helvetica",
    "font_size": 120,
    "font_style": "normal",
    "font_weight": "normal",
    "ipad": {
        "font_name": "Helvetica",
        "font_size": 120,
        "isForked": false
    },
    "iphone": {
        "font_name": "Helvetica",
        "font_size": 120,
        "isForked": false
    },
    "isDefaultSkin": false,
    "kiosk": {
        "font_name": "None",
        "font_size": 120,
        "isForked": false
    },
    "kuid": "s8e27280a2d242dabff03ef4278c4f75",
    "spaan": {
        "font_name": "Helvetica",
        "font_size": 120,
        "isForked": false
    },
    "spaandroidtablet": {
        "font_name": "Helvetica",
        "font_size": 120,
        "isForked": false
    },
    "spaip": {
        "font_name": "Helvetica",
        "font_size": 120,
        "isForked": false
    },
    "spaipad": {
        "font_name": "Helvetica",
        "font_size": 120,
        "isForked": false
    },
    "spawindowstablet": {
        "font_name": "Helvetica",
        "font_size": 120,
        "isForked": false
    },
    "spawinphone8": {
        "font_name": "Helvetica",
        "font_size": 120,
        "isForked": false
    },
    "tabrcandroid": {
        "font_name": "default",
        "font_size": 120,
        "isForked": false
    },
    "wType": "Label",
    "watchos": {
        "font_name": "System",
        "font_size": 120,
        "isForked": false
    },
    "windows8": {
        "font_name": "None",
        "font_size": 120,
        "isForked": false
    },
    "winphone8": {
        "font_name": "None",
        "font_size": 120,
        "isForked": false
    }
}