{
  "subType" : "customapp",
  "description" : "TerranBankRM",
  "version" : "1.0",
  "intSvcs" : [ {
    "name" : "TerranBankDBRM",
    "version" : "1.0",
    "etag" : "d4c77d75-86f6-4a2f-abef-791d65348e77"
  } ],
  "orchSvcs" : [ {
    "name" : "getAllAccountsRM",
    "version" : "1.0",
    "etag" : "3760e4b8-3b55-46df-a495-56fb8062a21e"
  } ],
  "objectSvcs" : [ {
    "name" : "DatabaseRM",
    "version" : "1.0",
    "etag" : "0101ee2e-c0d3-455a-b624-a6b28f488d68"
  } ],
  "identity" : [ "TerranBankRM" ]
}