{
    "DNDConfig": null,
    "_height_": {
        "type": "string",
        "value": "600dp"
    },
    "_left_": {
        "type": "string",
        "value": "0dp"
    },
    "_margin_": [
        0,
        0,
        0,
        0
    ],
    "_orientation_": 6,
    "_padding_": [
        0,
        0,
        0,
        0
    ],
    "_percent_": true,
    "_right_": {
        "type": "string",
        "value": "4dp"
    },
    "_skin_": "se1137584eea466480c654ac06e50ae3",
    "_top_": {
        "type": "string",
        "value": "73dp"
    },
    "_width_": {
        "type": "string",
        "value": "100%"
    },
    "allboxes": [],
    "autogrowmode": 0,
    "canUpdateUI": true,
    "children": [
        "flxSelect",
        "flxName",
        "flxAccountid",
        "btnSubmit"
    ],
    "clipbounds": true,
    "containerweight": 100,
    "enablescrolling": true,
    "id": "flxContent",
    "info": null,
    "iscustomlayout": false,
    "isvisible": true,
    "kuid": "f07d8edc207942ddb8dce9c916ee1cab",
    "layouttype": 4,
    "name": "kony.ui.FlexContainer",
    "parent": "frmChangeName",
    "pf": "frmChangeName",
    "retaincontentalignment": false,
    "retainflexpositionproperties": false,
    "snapgridsize": 10,
    "snaptogrid": true,
    "wType": "FlexContainer",
    "widgetalignment": 1,
    "zindex": 1
}