{
    "AS_Form_b75f7b2a4c004080990758e1949db883": {
        "id": "AS_Form_b75f7b2a4c004080990758e1949db883",
        "type": "ACTION_SEQUENCE",
        "params": [{
            "datatype": "collection",
            "name": "eventobject"
        }],
        "contextObj": {
            "name": "frmLoan",
            "type": "forms",
            "platform": "",
            "KUID": "c6c75ba9c96b441093ac615dc8df5bdd"
        },
        "language": "js",
        "actions": [{
            "id": "INVOKE_FUNCTION__ae898a60e12d419fbd8deeffaa078a52",
            "type": "INVOKE_FUNCTION",
            "sequenceKUID": "displayLoanForm",
            "display": "displayLoanForm",
            "inputparams": [],
            "parentId": null,
            "callbackType": null,
            "disabled": null,
            "source": "controller"
        }]
    }
}