{
    "AS_Label_e996e9d0ff2543d5804a65f6eaf7b5ec": {
        "id": "AS_Label_e996e9d0ff2543d5804a65f6eaf7b5ec",
        "type": "ACTION_SEQUENCE",
        "params": [{
            "datatype": "collection",
            "name": "eventobject"
        }, {
            "datatype": "string",
            "name": "x"
        }, {
            "datatype": "string",
            "name": "y"
        }],
        "contextObj": {
            "name": "frmTransfer",
            "type": "forms",
            "platform": "",
            "KUID": "b4f6e30b08c84441aa309d58882f7b9e"
        },
        "language": "js",
        "actions": [{
            "id": "INVOKE_FUNCTION__i72d663701aa4bf6ba298130cb1bdc45",
            "type": "INVOKE_FUNCTION",
            "sequenceKUID": "navigateToHome",
            "display": "navigateToHome",
            "inputparams": [],
            "parentId": null,
            "callbackType": null,
            "disabled": null,
            "source": "controller"
        }]
    }
}