{
    "AS_ListBox_e8e51c6410554d2e93a1c477369eae26": {
        "id": "AS_ListBox_e8e51c6410554d2e93a1c477369eae26",
        "type": "ACTION_SEQUENCE",
        "params": [{
            "datatype": "collection",
            "name": "eventobject"
        }],
        "contextObj": {
            "name": "frmChangeName",
            "type": "forms",
            "platform": "",
            "KUID": "edff4375bef74a3c8179536bb67a23a9"
        },
        "language": "js",
        "actions": [{
            "id": "ADD_SNIPPET__a5f9c9ff692d4bae970e700f27d8ba36",
            "type": "ADD_SNIPPET",
            "codeSnippet": "this.view.tbxName.text = this.view.listSelect.selectedKeyValue[1];\nthis.view.tbxAccountId.text = this.view.listSelect.selectedKeyValue[0];",
            "parentId": null,
            "callbackType": null
        }]
    }
}