{
    "assetPlatform": "Visualizer",
    "assetVersion": "1.0.0",
    "createdBy": "ruben.martinez@sybven.com",
    "createdMFVersion": "8.4.3.8_GA",
    "createdVizVersion": "9.1.0",
    "currentMFVersion": "8.4.3.8_GA",
    "currentVizVersion": "9.1.0",
    "itemCategory": "app",
    "itemGuid": "e7d12bbdf9114f308081ea0e2a91bc99",
    "itemName": "TerranBankAppRM",
    "libraryVersion": "libver4",
    "modifiedBy": "ruben.martinez@sybven.com"
}